Импорт данных
…
- `read_excel()` - читает файлы xls или xlsx
- ...
]

---

## Чтение данных

```r
nobel <- read_csv(file = "data/nobel.csv")
nobel
```

```
## # A tibble: 935 x 26
##      id firstname      surname    year category affiliation city 
##   <dbl> <chr>          <chr>     <dbl> <chr>    <chr>       <chr>
## 1     1 Wilhelm Conrad Rontgen    1901 Physics  Munich Uni~ Muni~
## 2     2 Hendrik A.     Lorentz    1902 Physics  Leiden Uni~ Leid~
## 3     3 Pieter         Zeeman     1902 Physics  Amsterdam ~ Amst~
## 4     4 Henri          Becquerel  1903 Physics  Ecole Poly~ Paris
## 5     5 Pierre         Curie      1903 Physics  Ecole muni~ Paris
## 6     6 Marie          Curie      1903 Physics  <NA>        <NA> 
## # ... with 929 more rows, and 19 more variables: country <chr>,
## #   born_date <date>, died_date <date>, gender <chr>,
## #   born_city <chr>, born_country <chr>,
## #   born_country_code <chr>, died_city <chr>,
## #   died_country <chr>, died_country_code <chr>,
## #   overall_motivation <chr>, share <dbl>, motivation <chr>,
## #   born_country_original <chr>, born_city_original <chr>, ...
```
…
---

.your-turn[
### .hand[Ваша очередь!]
.midi[
- RStudio > `sales-excel.Rmd`. 
- Загрузите файл `sales.xlsx` из папки `data-raw/`, используя соответствующие аргументы функции `read_excel()`, чтобы результат выглядел как слева.
- **Для продвинутых:** Преобразуйте данные по продажам, чтобы они выглядели как справа.
]
]

.pull-left[

```
## # A tibble: 9 x 2
##   id      n    
##   <chr>   <chr>
## 1 Brand 1 n    
## 2 1234    8    
## 3 8721    2    
## 4 1822    3    
## 5 Brand 2 n    
## 6 3333    1    
## # ... with 3 more rows
```
]
.pull-right[

```
## # A tibble: 7 x 3
##   brand      id     n
##   <chr>   <dbl> <dbl>
## 1 Brand 1  1234     8
## 2 Brand 1  8721     2
## 3 Brand 1  1822     3
## 4 Brand 2  3333     1
## 5 Brand 2  2156     3
## 6 Brand 2  3987     6
## # ... with 1 more row
```
…
