Классы данных
…
---

.question[
Рассчитаем и визуализируем число бронирований за конкретную дату.
]

```r
hotels %>%
  select(starts_with("arrival_"))
```

```
## # A tibble: 119,390 x 4
##   arrival_date_year arrival_date_month arrival_date_week_number
##               <dbl> <chr>                                 <dbl>
## 1              2015 July                                     27
## 2              2015 July                                     27
## 3              2015 July                                     27
## 4              2015 July                                     27
## 5              2015 July                                     27
## 6              2015 July                                     27
## # ... with 119,384 more rows, and 1 more variable:
## #   arrival_date_day_of_month <dbl>
```
…
---

## Шаг 2. Посчитаем число бронирований на каждую дату

.midi[

```r
hotels %>%
  mutate(arrival_date = glue("{arrival_date_year} {arrival_date_month} {arrival_date_day_of_month}")) %>%
  count(arrival_date)
```

```
## # A tibble: 793 x 2
##   arrival_date       n
##   <glue>         <int>
## 1 2015 August 1    110
## 2 2015 August 10   207
## 3 2015 August 11   117
## 4 2015 August 12   133
## 5 2015 August 13   107
## 6 2015 August 14   329
## # ... with 787 more rows
```
…
---

## Шаг 2. Посчитаем число бронирований на каждую дату

.midi[

```r
hotels %>%
  mutate(arrival_date = ymd(glue("{arrival_date_year} {arrival_date_month} {arrival_date_day_of_month}"))) %>% 
  count(arrival_date)
```

```
## # A tibble: 793 x 2
##   arrival_date     n
##   <date>       <int>
## 1 2015-07-01     122
## 2 2015-07-02      93
## 3 2015-07-03      56
## 4 2015-07-04      88
## 5 2015-07-05      53
## 6 2015-07-06      75
## # ... with 787 more rows
```
…
