Трансформация данных
…
.footnote[
Source: [FiveThirtyEight](https://projects.fivethirtyeight.com/trump-approval-ratings/adults/)
]

---

## Данные

```r
trump
```

```
## # A tibble: 2,702 x 4
##    subgroup date       approval disapproval
##    <chr>    <date>        <dbl>       <dbl>
##  1 Voters   2020-10-04     44.7        52.2
##  2 Adults   2020-10-04     43.2        52.6
##  3 Adults   2020-10-03     43.2        52.6
##  4 Voters   2020-10-03     45.0        51.7
##  5 Adults   2020-10-02     43.3        52.4
##  6 Voters   2020-10-02     44.5        52.1
##  7 Voters   2020-10-01     44.1        52.8
##  8 Adults   2020-10-01     42.7        53.3
##  9 Adults   2020-09-30     42.2        53.7
## 10 Voters   2020-09-30     44.2        52.7
## # ... with 2,692 more rows
```
…
