Грамматика обращения с данными
…
---

## Выбираем один столбец

Просмотрим только `lead_time` (число дней между бронированием и датой заезда):

```r
select(hotels, lead_time)
```

```
## # A tibble: 119,390 x 1
##   lead_time
##       <dbl>
## 1       342
## 2       737
## 3         7
## 4        13
## 5        14
## 6        14
## # ... with 119,384 more rows
```
…
---

## Выбираем один столбец

.pull-left[

```r
select( 
  hotels, 
  lead_time
  )
```

```
## # A tibble: 119,390 x 1
##   lead_time
##       <dbl>
## 1       342
## 2       737
## 3         7
## 4        13
## 5        14
## 6        14
## # ... with 119,384 more rows
```
…
---

.tip[
функции dplyr всегда получают фрейм и всегда возвращают фрейм.
]

```r
select(hotels, lead_time)
```

```
## # A tibble: 119,390 x 1
##   lead_time
##       <dbl>
## 1       342
## 2       737
## 3         7
## 4        13
## 5        14
## 6        14
## # ... with 119,384 more rows
```
…
## Выбираем несколько столбцов

Просмотрим только тип отеля `hotel` и `lead_time`:

--

.pull-left[

```r
select(hotels, hotel, lead_time)
```

```
## # A tibble: 119,390 x 2
##   hotel        lead_time
##   <chr>            <dbl>
## 1 Resort Hotel       342
## 2 Resort Hotel       737
## 3 Resort Hotel         7
## 4 Resort Hotel        13
## 5 Resort Hotel        14
## 6 Resort Hotel        14
## # ... with 119,384 more rows
```
…
---

## Манипулирование данными, шаг за шагом

.pull-left[
Select:

```r
hotels %>%
  select(hotel, lead_time)
```

```
## # A tibble: 119,390 x 2
##   hotel        lead_time
##   <chr>            <dbl>
## 1 Resort Hotel       342
## 2 Resort Hotel       737
## 3 Resort Hotel         7
## 4 Resort Hotel        13
## 5 Resort Hotel        14
## 6 Resort Hotel        14
## # ... with 119,384 more rows
```
]

--
.pull-right[
Выбираем, затем упорядочиваем:

```r
hotels %>%
  select(hotel, lead_time) %>%
  arrange(desc(lead_time))
```

```
## # A tibble: 119,390 x 2
##   hotel        lead_time
##   <chr>            <dbl>
## 1 Resort Hotel       737
## 2 Resort Hotel       709
## 3 City Hotel         629
## 4 City Hotel         629
## 5 City Hotel         629
## 6 City Hotel         629
## # ... with 119,384 more rows
```
…
.pull-left[
- Начинаем с фрейма `hotels`, передаем его функции `select()`,
]
.pull-right[
.small[

```r
*hotels %>%
  select(hotel, lead_time) %>%
  arrange(desc(lead_time))
```

```
## # A tibble: 119,390 x 2
##   hotel        lead_time
##   <chr>            <dbl>
## 1 Resort Hotel       737
## 2 Resort Hotel       709
## 3 City Hotel         629
## 4 City Hotel         629
## 5 City Hotel         629
## 6 City Hotel         629
## # ... with 119,384 more rows
```
…
.pull-left[
- Начинаем с фрейма `hotels`, передаем его функции `select()`,
- затем выбираем переменные `hotel` и `lead_time`,
]
.pull-right[
.small[

```r
hotels %>%
* select(hotel, lead_time) %>%
  arrange(desc(lead_time))
```

```
## # A tibble: 119,390 x 2
##   hotel        lead_time
##   <chr>            <dbl>
## 1 Resort Hotel       737
## 2 Resort Hotel       709
## 3 City Hotel         629
## 4 City Hotel         629
## 5 City Hotel         629
## 6 City Hotel         629
## # ... with 119,384 more rows
```
…
```r
hotels %>%
  select(hotel, lead_time) %>% 
* arrange(desc(lead_time))
```

```
## # A tibble: 119,390 x 2
##   hotel        lead_time
##   <chr>            <dbl>
## 1 Resort Hotel       737
## 2 Resort Hotel       709
## 3 City Hotel         629
## 4 City Hotel         629
## 5 City Hotel         629
## 6 City Hotel         629
## # ... with 119,384 more rows
```
…
